{
  "IcoMoonType": "selection",
  "icons": [
    {
      "icon": {
        "paths": [],
        "attrs": [],
        "width": 1463,
        "isMulticolor": false,
        "isMulticolor2": false,
        "grid": 0,
        "tags": [
          "arrowiconkopi"
        ],
        "colorPermutations": {
          "12384410412552552551": []
        }
      },
      "attrs": [],
      "properties": {
        "order": 9,
        "id": 6,
        "name": "arrowiconkopi",
        "prevSize": 32,
        "code": 59662
      },
      "setIdx": 0,
      "setId": 5,
      "iconIdx": 0
    },
    {
      "icon": {
        "paths": [],
        "attrs": [],
        "isMulticolor": false,
        "isMulticolor2": false,
        "grid": 0,
        "tags": [
          "checkicon"
        ],
        "colorPermutations": {
          "12384410412552552551": []
        }
      },
      "attrs": [],
      "properties": {
        "order": 10,
        "id": 5,
        "name": "checkicon",
        "prevSize": 32,
        "code": 59663
      },
      "setIdx": 0,
      "setId": 5,
      "iconIdx": 1
    },
    {
      "icon": {
        "paths": [],
        "attrs": [],
        "width": 819,
        "isMulticolor": false,
        "isMulticolor2": false,
        "grid": 0,
        "tags": [
          "documenticon"
        ],
        "colorPermutations": {
          "12384410412552552551": []
        }
      },
      "attrs": [],
      "properties": {
        "order": 11,
        "id": 4,
        "name": "documenticon",
        "prevSize": 32,
        "code": 59664
      },
      "setIdx": 0,
      "setId": 5,
      "iconIdx": 2
    },
    {
      "icon": {
        "paths": [],
        "attrs": [],
        "width": 1280,
        "isMulticolor": false,
        "isMulticolor2": false,
        "grid": 0,
        "tags": [
          "emailicon"
        ],
        "colorPermutations": {
          "12384410412552552551": []
        }
      },
      "attrs": [],
      "properties": {
        "order": 12,
        "id": 3,
        "name": "emailicon",
        "prevSize": 32,
        "code": 59665
      },
      "setIdx": 0,
      "setId": 5,
      "iconIdx": 3
    },
    {
      "icon": {
        "paths": [],
        "attrs": [],
        "width": 717,
        "isMulticolor": false,
        "isMulticolor2": false,
        "grid": 0,
        "tags": [
          "phoneicon"
        ],
        "colorPermutations": {
          "12384410412552552551": []
        }
      },
      "attrs": [],
      "properties": {
        "order": 13,
        "id": 2,
        "name": "phoneicon2",
        "prevSize": 32,
        "code": 59666
      },
      "setIdx": 0,
      "setId": 5,
      "iconIdx": 4
    },
    {
      "icon": {
        "paths": [],
        "attrs": [],
        "width": 1463,
        "isMulticolor": false,
        "isMulticolor2": false,
        "grid": 0,
        "tags": [
          "Slimvectorobject1"
        ],
        "colorPermutations": {
          "12384410412552552551": []
        }
      },
      "attrs": [],
      "properties": {
        "order": 14,
        "id": 1,
        "name": "Slimvectorobject12",
        "prevSize": 32,
        "code": 59667
      },
      "setIdx": 0,
      "setId": 5,
      "iconIdx": 5
    },
    {
      "icon": {
        "paths": [
          "M44.8 0c-24.742 0-44.8 20.058-44.8 44.8s20.058 44.8 44.8 44.8 44.8-20.058 44.8-44.8-20.058-44.8-44.8-44.8zM44.8 83.2c-21.206 0-38.4-17.194-38.4-38.4s17.194-38.4 38.4-38.4 38.4 17.194 38.4 38.4-17.194 38.4-38.4 38.4zM19.91 69.686s28.282-10.186 33.939-15.84c5.658-5.654 15.84-33.936 15.84-33.936s-28.288 10.186-33.939 15.84c-5.654 5.654-15.84 33.936-15.84 33.936zM40.275 40.278l9.050 9.046c2.262 2.262-20.362 11.312-20.362 11.312s9.056-22.624 11.318-20.368z",
          "M14.816 131.344c1.261 1.258 3.29 1.28 4.544 0.019 1.248-1.248 1.261-3.264-0.019-4.544l-4.48-4.48c-1.264-1.261-3.286-1.28-4.544-0.019-1.254 1.248-1.264 3.264 0.019 4.544l4.48 4.486zM67.19 144.010h-6.336c-1.792 0-3.232 1.421-3.232 3.2 0 1.77 1.414 3.2 3.232 3.2h6.336c1.792 0 3.232-1.418 3.232-3.2 0-1.766-1.424-3.2-3.232-3.2zM12.8 147.21c0-1.766-1.421-3.2-3.232-3.2h-6.336c-1.792 0-3.232 1.421-3.232 3.2 0 1.77 1.418 3.2 3.232 3.2h6.336c1.786 0 3.232-1.418 3.232-3.2zM35.21 128c-10.602 0-19.2 8.598-19.2 19.2s8.598 19.2 19.2 19.2c10.598 0 19.2-8.598 19.2-19.2s-8.602-19.2-19.2-19.2zM35.21 160c-7.072 0-12.8-5.728-12.8-12.8s5.728-12.8 12.8-12.8 12.8 5.728 12.8 12.8-5.728 12.8-12.8 12.8zM14.816 163.078l-4.48 4.48c-1.264 1.264-1.28 3.286-0.022 4.544 1.248 1.248 3.264 1.261 4.544-0.019l4.48-4.48c1.267-1.264 1.286-3.286 0.026-4.544-1.248-1.258-3.264-1.261-4.544 0.019zM55.603 131.344l4.48-4.48c1.264-1.267 1.28-3.29 0.022-4.55-1.254-1.248-3.264-1.258-4.544 0.022l-4.48 4.48c-1.267 1.264-1.28 3.29-0.026 4.544 1.254 1.248 3.264 1.261 4.544-0.016zM35.21 169.616c-1.77 0-3.2 1.424-3.2 3.232v6.336c0 1.792 1.421 3.232 3.2 3.232 1.77 0 3.2-1.408 3.2-3.232v-6.336c0-1.782-1.418-3.232-3.2-3.232zM55.603 163.078c-1.264-1.264-3.286-1.28-4.544-0.022-1.248 1.254-1.264 3.264 0.019 4.544l4.48 4.48c1.264 1.267 3.286 1.28 4.544 0.026 1.254-1.248 1.264-3.264-0.019-4.544l-4.48-4.48zM35.21 124.8c1.77 0 3.2-1.418 3.2-3.232v-6.336c0-1.786-1.418-3.232-3.2-3.232-1.77 0-3.2 1.421-3.2 3.232v6.336c0 1.786 1.421 3.232 3.2 3.232z",
          "M64 214.4l-6.4-6.4-25.6 25.6-25.6-25.6-6.4 6.4 25.6 25.6-25.6 25.6 6.4 6.4 25.6-25.6 25.6 25.6 6.4-6.4-25.6-25.6z",
          "M88.275 378.278c-2.963-7.872-10.566-13.478-19.475-13.478-2.048 0-4.032 0.298-5.907 0.851-5.075-8.192-14.144-13.651-24.493-13.651-15.693 0-28.461 12.557-28.794 28.17-5.744 3.328-9.606 9.536-9.606 16.63 0 10.598 8.602 19.2 19.2 19.2h19.2v-6.4h-19.21c-7.050 0-12.79-5.728-12.79-12.8 0-6.058 4.214-11.142 9.878-12.467-0.182-1.152-0.278-2.33-0.278-3.533 0-12.371 10.029-22.4 22.4-22.4 10.118 0 18.669 6.71 21.446 15.92 2.464-1.952 5.568-3.12 8.954-3.12 7.411 0 13.52 5.6 14.314 12.8h0.096c7.050 0 12.79 5.728 12.79 12.8 0 7.056-5.728 12.8-12.79 12.8h-19.21v6.4h19.2c10.598 0 19.2-8.618 19.2-19.2 0-8.848-5.984-16.298-14.125-18.522zM51.2 380.8l-16 19.2h9.6v25.6h12.8v-25.6h9.6z",
          "M14.816 467.344c1.261 1.258 3.286 1.28 4.544 0.016 1.248-1.248 1.261-3.264-0.019-4.544l-4.48-4.48c-1.264-1.264-3.29-1.28-4.544-0.022-1.248 1.248-1.261 3.264 0.019 4.544l4.48 4.486z",
          "M54.41 483.2c0 10.604-8.596 19.2-19.2 19.2s-19.2-8.596-19.2-19.2c0-10.604 8.596-19.2 19.2-19.2s19.2 8.596 19.2 19.2z",
          "M12.8 483.21c0-1.766-1.421-3.2-3.232-3.2h-6.336c-1.786 0-3.232 1.421-3.232 3.2 0 1.77 1.421 3.2 3.232 3.2h6.336c1.786 0 3.232-1.418 3.232-3.2zM67.19 480.010h-6.336c-1.792 0-3.232 1.421-3.232 3.2 0 1.77 1.421 3.2 3.232 3.2h6.336c1.782 0 3.232-1.418 3.232-3.2 0-1.766-1.424-3.2-3.232-3.2zM14.816 499.082l-4.48 4.48c-1.264 1.261-1.28 3.296-0.026 4.544 1.248 1.248 3.264 1.254 4.544-0.022l4.48-4.48c1.267-1.264 1.286-3.286 0.026-4.544-1.248-1.248-3.264-1.261-4.544 0.019zM35.21 460.8c1.77 0 3.2-1.421 3.2-3.232v-6.336c0-1.786-1.418-3.232-3.2-3.232-1.77 0-3.2 1.421-3.2 3.232v6.336c0 1.786 1.421 3.232 3.2 3.232zM35.21 505.619c-1.77 0-3.2 1.424-3.2 3.232v6.336c0 1.792 1.421 3.232 3.2 3.232 1.77 0 3.2-1.414 3.2-3.232v-6.336c0-1.786-1.418-3.232-3.2-3.232zM55.603 467.347l4.48-4.48c1.264-1.27 1.28-3.296 0.022-4.554-1.254-1.248-3.264-1.258-4.544 0.022l-4.48 4.48c-1.267 1.261-1.28 3.29-0.026 4.544 1.254 1.248 3.264 1.261 4.544-0.016zM55.603 499.078c-1.264-1.264-3.286-1.28-4.544-0.022-1.248 1.254-1.264 3.264 0.019 4.544l4.48 4.48c1.264 1.267 3.286 1.28 4.544 0.026 1.248-1.248 1.258-3.264-0.019-4.544l-4.48-4.48z",
          "M32 603.2h66.88v13.12h-66.88zM32.64 629.76h66.24v13.12h-66.24zM32 576h66.88v12.8h-66.88z",
          "M32 756.886v-56.064c0-7.088-5.744-12.822-12.8-12.822-7.072 0-12.8 5.718-12.8 12.819v56.064c-3.93 3.52-6.4 8.634-6.4 14.317 0 10.598 8.598 19.2 19.2 19.2 10.598 0 19.2-8.602 19.2-19.2 0-5.686-2.464-10.797-6.4-14.314zM19.2 784c-7.072 0-12.8-5.728-12.8-12.8 0-4.736 2.576-8.874 6.4-11.088v-59.296c0-3.546 2.867-6.416 6.4-6.416 3.552 0 6.4 2.87 6.4 6.416v59.296c3.824 2.208 6.4 6.349 6.4 11.088 0 7.072-5.728 12.8-12.8 12.8zM22.349 762.131c0.032-0.176 0.051-0.352 0.051-0.544v-31.978c0-1.77-1.418-3.21-3.2-3.21-1.77 0-3.2 1.459-3.2 3.21v31.981c0 0.186 0.016 0.365 0.045 0.544-3.75 1.296-6.445 4.864-6.445 9.066 0 5.302 4.298 9.6 9.6 9.6s9.6-4.298 9.6-9.6c0-4.198-2.694-7.766-6.451-9.069z",
          "M0 816h51.2v51.2h-51.2z",
          "M0.39 853.43v-2.73c0-0.192 0.048-0.368 0.138-0.531l6.416-11.258c0.544-0.928 0.973-2.438 0.973-4.128 0-1.178-0.608-1.792-1.472-1.792s-1.536 0.576-1.536 1.76v0.467c0 0.592-0.48 1.075-1.075 1.075h-2.656c-0.595 0-1.075-0.48-1.075-1.075v-0.288c0-2.221 0.608-3.514 1.76-4.589 1.146-1.11 2.864-1.648 4.589-1.648 1.718 0 3.187 0.394 4.371 1.472 1.114 0.998 1.898 2.576 1.898 4.8 0 1.792-0.534 3.904-1.398 5.376l-4.826 8.246c-0.947 1.616-0.947 1.616 0.928 1.616h4.224c0.592 0 1.069 0.48 1.069 1.069v2.154c0 0.595-0.48 1.075-1.072 1.075h-10.189c-0.592 0-1.072-0.48-1.072-1.078zM28.422 853.424v-11.392c0-0.352-0.512-0.435-0.618-0.096l-1.946 7.264c-0.141 0.448-0.557 0.749-1.024 0.749h-1.040c-0.47 0-0.886-0.307-1.024-0.752l-1.869-7.168c-0.109-0.342-0.624-0.262-0.624 0.096v11.302c0 0.595-0.48 1.075-1.078 1.075h-2.944c-0.589 0-1.066-0.48-1.066-1.075v-23.37c0-0.595 0.48-1.075 1.069-1.075h2.666c0.448 0 0.851 0.278 1.005 0.704l3.968 10.656c0.147 0.397 0.714 0.397 0.864 0l3.968-10.656c0.16-0.422 0.557-0.704 1.005-0.704h2.701c0.595 0 1.075 0.48 1.075 1.075v23.376c0 0.595-0.48 1.075-1.075 1.075h-2.944c-0.592 0-1.072-0.48-1.072-1.078zM49.2 852.032c-1.146 1.328-2.726 2.474-5.594 2.474h-6.134c-0.592 0-1.072-0.48-1.072-1.075v-23.373c0-0.595 0.48-1.075 1.075-1.075h6.134c2.867 0 4.448 1.152 5.594 2.474 2.048 2.368 1.901 6.954 1.901 10.288s0.141 7.923-1.904 10.288zM45.402 834.682c-0.32-0.646-0.97-1.11-1.901-1.11h-1.389c-0.346 0-0.621 0.288-0.621 0.624v15.085c0 0.352 0.282 0.634 0.63 0.634h1.376c0.928 0 1.581-0.464 1.901-1.11 0.608-1.184 0.608-4.256 0.608-7.091s0-5.84-0.608-7.024z",
          "M81.654 905.91c-3.616-4.64-17.904-9.91-40-9.91-22.086 0-36.662 4.438-40 9.91-6.387 10.496 18.528 18.682 10.006 26.426-17.133 15.568-11.712 31.338-6.669 36.336 6.666 6.602 13.098 10.931 29.997 16.512 10.003 3.306 10.003 13.216 10.003 13.216s15.226-14.835-13.334-26.426c-11.994-4.864 2.998-17.126 23.334-29.728 23.85-14.79 31.664-29.926 26.662-36.339zM41.6 918.502c-19.44 0-35.2-4.298-35.2-9.6s15.76-9.6 35.2-9.6 35.2 4.298 35.2 9.6-15.76 9.6-35.2 9.6z"
        ],
        "attrs": [
          {
            "fill": "rgb(0, 0, 0)"
          },
          {
            "fill": "rgb(0, 0, 0)"
          },
          {
            "fill": "rgb(255, 255, 255)"
          },
          {
            "fill": "rgb(0, 0, 0)"
          },
          {
            "fill": "rgb(0, 0, 0)"
          },
          {
            "fill": "rgb(0, 0, 0)"
          },
          {
            "fill": "rgb(0, 0, 0)"
          },
          {
            "fill": "rgb(255, 255, 255)"
          },
          {
            "fill": "rgb(0, 0, 0)"
          },
          {
            "fill": "rgb(238, 44, 104)"
          },
          {
            "fill": "rgb(255, 255, 255)"
          },
          {
            "fill": "rgb(0, 0, 0)"
          }
        ],
        "width": 144,
        "isMulticolor": true,
        "isMulticolor2": false,
        "grid": 0,
        "tags": [
          "sprites"
        ],
        "colorPermutations": {
          "12384410412552552551": [
            {
              "f": 0
            },
            {
              "f": 0
            },
            {
              "f": 2
            },
            {
              "f": 0
            },
            {
              "f": 0
            },
            {
              "f": 0
            },
            {
              "f": 0
            },
            {
              "f": 2
            },
            {
              "f": 0
            },
            {
              "f": 1
            },
            {
              "f": 2
            },
            {
              "f": 0
            }
          ]
        }
      },
      "attrs": [
        {
          "fill": "rgb(0, 0, 0)"
        },
        {
          "fill": "rgb(0, 0, 0)"
        },
        {
          "fill": "rgb(255, 255, 255)"
        },
        {
          "fill": "rgb(0, 0, 0)"
        },
        {
          "fill": "rgb(0, 0, 0)"
        },
        {
          "fill": "rgb(0, 0, 0)"
        },
        {
          "fill": "rgb(0, 0, 0)"
        },
        {
          "fill": "rgb(255, 255, 255)"
        },
        {
          "fill": "rgb(0, 0, 0)"
        },
        {
          "fill": "rgb(238, 44, 104)"
        },
        {
          "fill": "rgb(255, 255, 255)"
        },
        {
          "fill": "rgb(0, 0, 0)"
        }
      ],
      "properties": {
        "order": 15,
        "id": 0,
        "name": "sprites2",
        "prevSize": 32,
        "code": 59668,
        "codes": [
          59668,
          59669,
          59670,
          59671,
          59672,
          59673,
          59674,
          59675,
          59676,
          59677,
          59678,
          59679
        ]
      },
      "setIdx": 0,
      "setId": 5,
      "iconIdx": 6
    },
    {
      "icon": {
        "paths": [],
        "attrs": [],
        "width": 717,
        "isMulticolor": false,
        "isMulticolor2": false,
        "grid": 0,
        "tags": [
          "phoneicon"
        ],
        "colorPermutations": {
          "12384410412552552551": []
        }
      },
      "attrs": [],
      "properties": {
        "order": 3,
        "id": 2,
        "name": "phoneicon",
        "prevSize": 32,
        "code": 59660
      },
      "setIdx": 3,
      "setId": 2,
      "iconIdx": 5
    },
    {
      "icon": {
        "paths": [],
        "attrs": [],
        "width": 1463,
        "isMulticolor": false,
        "isMulticolor2": false,
        "grid": 0,
        "tags": [
          "Slimvectorobject1"
        ],
        "colorPermutations": {
          "12384410412552552551": []
        }
      },
      "attrs": [],
      "properties": {
        "order": 4,
        "id": 1,
        "name": "Slimvectorobject1",
        "prevSize": 32,
        "code": 59661
      },
      "setIdx": 3,
      "setId": 2,
      "iconIdx": 6
    },
    {
      "icon": {
        "paths": [
          "M44.8 0c-24.742 0-44.8 20.058-44.8 44.8s20.058 44.8 44.8 44.8 44.8-20.058 44.8-44.8-20.058-44.8-44.8-44.8zM44.8 83.2c-21.206 0-38.4-17.194-38.4-38.4s17.194-38.4 38.4-38.4 38.4 17.194 38.4 38.4-17.194 38.4-38.4 38.4zM19.91 69.686s28.282-10.186 33.939-15.84c5.658-5.654 15.84-33.936 15.84-33.936s-28.288 10.186-33.939 15.84c-5.654 5.654-15.84 33.936-15.84 33.936zM40.275 40.278l9.050 9.046c2.262 2.262-20.362 11.312-20.362 11.312s9.056-22.624 11.318-20.368z",
          "M14.816 131.344c1.261 1.258 3.29 1.28 4.544 0.019 1.248-1.248 1.261-3.264-0.019-4.544l-4.48-4.48c-1.264-1.261-3.286-1.28-4.544-0.019-1.254 1.248-1.264 3.264 0.019 4.544l4.48 4.486zM67.19 144.010h-6.336c-1.792 0-3.232 1.421-3.232 3.2 0 1.77 1.414 3.2 3.232 3.2h6.336c1.792 0 3.232-1.418 3.232-3.2 0-1.766-1.424-3.2-3.232-3.2zM12.8 147.21c0-1.766-1.421-3.2-3.232-3.2h-6.336c-1.792 0-3.232 1.421-3.232 3.2 0 1.77 1.418 3.2 3.232 3.2h6.336c1.786 0 3.232-1.418 3.232-3.2zM35.21 128c-10.602 0-19.2 8.598-19.2 19.2s8.598 19.2 19.2 19.2c10.598 0 19.2-8.598 19.2-19.2s-8.602-19.2-19.2-19.2zM35.21 160c-7.072 0-12.8-5.728-12.8-12.8s5.728-12.8 12.8-12.8 12.8 5.728 12.8 12.8-5.728 12.8-12.8 12.8zM14.816 163.078l-4.48 4.48c-1.264 1.264-1.28 3.286-0.022 4.544 1.248 1.248 3.264 1.261 4.544-0.019l4.48-4.48c1.267-1.264 1.286-3.286 0.026-4.544-1.248-1.258-3.264-1.261-4.544 0.019zM55.603 131.344l4.48-4.48c1.264-1.267 1.28-3.29 0.022-4.55-1.254-1.248-3.264-1.258-4.544 0.022l-4.48 4.48c-1.267 1.264-1.28 3.29-0.026 4.544 1.254 1.248 3.264 1.261 4.544-0.016zM35.21 169.616c-1.77 0-3.2 1.424-3.2 3.232v6.336c0 1.792 1.421 3.232 3.2 3.232 1.77 0 3.2-1.408 3.2-3.232v-6.336c0-1.782-1.418-3.232-3.2-3.232zM55.603 163.078c-1.264-1.264-3.286-1.28-4.544-0.022-1.248 1.254-1.264 3.264 0.019 4.544l4.48 4.48c1.264 1.267 3.286 1.28 4.544 0.026 1.254-1.248 1.264-3.264-0.019-4.544l-4.48-4.48zM35.21 124.8c1.77 0 3.2-1.418 3.2-3.232v-6.336c0-1.786-1.418-3.232-3.2-3.232-1.77 0-3.2 1.421-3.2 3.232v6.336c0 1.786 1.421 3.232 3.2 3.232z",
          "M64 214.4l-6.4-6.4-25.6 25.6-25.6-25.6-6.4 6.4 25.6 25.6-25.6 25.6 6.4 6.4 25.6-25.6 25.6 25.6 6.4-6.4-25.6-25.6z",
          "M88.275 378.278c-2.963-7.872-10.566-13.478-19.475-13.478-2.048 0-4.032 0.298-5.907 0.851-5.075-8.192-14.144-13.651-24.493-13.651-15.693 0-28.461 12.557-28.794 28.17-5.744 3.328-9.606 9.536-9.606 16.63 0 10.598 8.602 19.2 19.2 19.2h19.2v-6.4h-19.21c-7.050 0-12.79-5.728-12.79-12.8 0-6.058 4.214-11.142 9.878-12.467-0.182-1.152-0.278-2.33-0.278-3.533 0-12.371 10.029-22.4 22.4-22.4 10.118 0 18.669 6.71 21.446 15.92 2.464-1.952 5.568-3.12 8.954-3.12 7.411 0 13.52 5.6 14.314 12.8h0.096c7.050 0 12.79 5.728 12.79 12.8 0 7.056-5.728 12.8-12.79 12.8h-19.21v6.4h19.2c10.598 0 19.2-8.618 19.2-19.2 0-8.848-5.984-16.298-14.125-18.522zM51.2 380.8l-16 19.2h9.6v25.6h12.8v-25.6h9.6z",
          "M14.816 467.344c1.261 1.258 3.286 1.28 4.544 0.016 1.248-1.248 1.261-3.264-0.019-4.544l-4.48-4.48c-1.264-1.264-3.29-1.28-4.544-0.022-1.248 1.248-1.261 3.264 0.019 4.544l4.48 4.486z",
          "M54.41 483.2c0 10.604-8.596 19.2-19.2 19.2s-19.2-8.596-19.2-19.2c0-10.604 8.596-19.2 19.2-19.2s19.2 8.596 19.2 19.2z",
          "M12.8 483.21c0-1.766-1.421-3.2-3.232-3.2h-6.336c-1.786 0-3.232 1.421-3.232 3.2 0 1.77 1.421 3.2 3.232 3.2h6.336c1.786 0 3.232-1.418 3.232-3.2zM67.19 480.010h-6.336c-1.792 0-3.232 1.421-3.232 3.2 0 1.77 1.421 3.2 3.232 3.2h6.336c1.782 0 3.232-1.418 3.232-3.2 0-1.766-1.424-3.2-3.232-3.2zM14.816 499.082l-4.48 4.48c-1.264 1.261-1.28 3.296-0.026 4.544 1.248 1.248 3.264 1.254 4.544-0.022l4.48-4.48c1.267-1.264 1.286-3.286 0.026-4.544-1.248-1.248-3.264-1.261-4.544 0.019zM35.21 460.8c1.77 0 3.2-1.421 3.2-3.232v-6.336c0-1.786-1.418-3.232-3.2-3.232-1.77 0-3.2 1.421-3.2 3.232v6.336c0 1.786 1.421 3.232 3.2 3.232zM35.21 505.619c-1.77 0-3.2 1.424-3.2 3.232v6.336c0 1.792 1.421 3.232 3.2 3.232 1.77 0 3.2-1.414 3.2-3.232v-6.336c0-1.786-1.418-3.232-3.2-3.232zM55.603 467.347l4.48-4.48c1.264-1.27 1.28-3.296 0.022-4.554-1.254-1.248-3.264-1.258-4.544 0.022l-4.48 4.48c-1.267 1.261-1.28 3.29-0.026 4.544 1.254 1.248 3.264 1.261 4.544-0.016zM55.603 499.078c-1.264-1.264-3.286-1.28-4.544-0.022-1.248 1.254-1.264 3.264 0.019 4.544l4.48 4.48c1.264 1.267 3.286 1.28 4.544 0.026 1.248-1.248 1.258-3.264-0.019-4.544l-4.48-4.48z",
          "M32 603.2h66.88v13.12h-66.88zM32.64 629.76h66.24v13.12h-66.24zM32 576h66.88v12.8h-66.88z",
          "M32 756.886v-56.064c0-7.088-5.744-12.822-12.8-12.822-7.072 0-12.8 5.718-12.8 12.819v56.064c-3.93 3.52-6.4 8.634-6.4 14.317 0 10.598 8.598 19.2 19.2 19.2 10.598 0 19.2-8.602 19.2-19.2 0-5.686-2.464-10.797-6.4-14.314zM19.2 784c-7.072 0-12.8-5.728-12.8-12.8 0-4.736 2.576-8.874 6.4-11.088v-59.296c0-3.546 2.867-6.416 6.4-6.416 3.552 0 6.4 2.87 6.4 6.416v59.296c3.824 2.208 6.4 6.349 6.4 11.088 0 7.072-5.728 12.8-12.8 12.8zM22.349 762.131c0.032-0.176 0.051-0.352 0.051-0.544v-31.978c0-1.77-1.418-3.21-3.2-3.21-1.77 0-3.2 1.459-3.2 3.21v31.981c0 0.186 0.016 0.365 0.045 0.544-3.75 1.296-6.445 4.864-6.445 9.066 0 5.302 4.298 9.6 9.6 9.6s9.6-4.298 9.6-9.6c0-4.198-2.694-7.766-6.451-9.069z",
          "M0 816h51.2v51.2h-51.2z",
          "M0.39 853.43v-2.73c0-0.192 0.048-0.368 0.138-0.531l6.416-11.258c0.544-0.928 0.973-2.438 0.973-4.128 0-1.178-0.608-1.792-1.472-1.792s-1.536 0.576-1.536 1.76v0.467c0 0.592-0.48 1.075-1.075 1.075h-2.656c-0.595 0-1.075-0.48-1.075-1.075v-0.288c0-2.221 0.608-3.514 1.76-4.589 1.146-1.11 2.864-1.648 4.589-1.648 1.718 0 3.187 0.394 4.371 1.472 1.114 0.998 1.898 2.576 1.898 4.8 0 1.792-0.534 3.904-1.398 5.376l-4.826 8.246c-0.947 1.616-0.947 1.616 0.928 1.616h4.224c0.592 0 1.069 0.48 1.069 1.069v2.154c0 0.595-0.48 1.075-1.072 1.075h-10.189c-0.592 0-1.072-0.48-1.072-1.078zM28.422 853.424v-11.392c0-0.352-0.512-0.435-0.618-0.096l-1.946 7.264c-0.141 0.448-0.557 0.749-1.024 0.749h-1.040c-0.47 0-0.886-0.307-1.024-0.752l-1.869-7.168c-0.109-0.342-0.624-0.262-0.624 0.096v11.302c0 0.595-0.48 1.075-1.078 1.075h-2.944c-0.589 0-1.066-0.48-1.066-1.075v-23.37c0-0.595 0.48-1.075 1.069-1.075h2.666c0.448 0 0.851 0.278 1.005 0.704l3.968 10.656c0.147 0.397 0.714 0.397 0.864 0l3.968-10.656c0.16-0.422 0.557-0.704 1.005-0.704h2.701c0.595 0 1.075 0.48 1.075 1.075v23.376c0 0.595-0.48 1.075-1.075 1.075h-2.944c-0.592 0-1.072-0.48-1.072-1.078zM49.2 852.032c-1.146 1.328-2.726 2.474-5.594 2.474h-6.134c-0.592 0-1.072-0.48-1.072-1.075v-23.373c0-0.595 0.48-1.075 1.075-1.075h6.134c2.867 0 4.448 1.152 5.594 2.474 2.048 2.368 1.901 6.954 1.901 10.288s0.141 7.923-1.904 10.288zM45.402 834.682c-0.32-0.646-0.97-1.11-1.901-1.11h-1.389c-0.346 0-0.621 0.288-0.621 0.624v15.085c0 0.352 0.282 0.634 0.63 0.634h1.376c0.928 0 1.581-0.464 1.901-1.11 0.608-1.184 0.608-4.256 0.608-7.091s0-5.84-0.608-7.024z",
          "M81.654 905.91c-3.616-4.64-17.904-9.91-40-9.91-22.086 0-36.662 4.438-40 9.91-6.387 10.496 18.528 18.682 10.006 26.426-17.133 15.568-11.712 31.338-6.669 36.336 6.666 6.602 13.098 10.931 29.997 16.512 10.003 3.306 10.003 13.216 10.003 13.216s15.226-14.835-13.334-26.426c-11.994-4.864 2.998-17.126 23.334-29.728 23.85-14.79 31.664-29.926 26.662-36.339zM41.6 918.502c-19.44 0-35.2-4.298-35.2-9.6s15.76-9.6 35.2-9.6 35.2 4.298 35.2 9.6-15.76 9.6-35.2 9.6z"
        ],
        "attrs": [
          {
            "fill": "rgb(0, 0, 0)"
          },
          {
            "fill": "rgb(0, 0, 0)"
          },
          {
            "fill": "rgb(255, 255, 255)"
          },
          {
            "fill": "rgb(0, 0, 0)"
          },
          {
            "fill": "rgb(0, 0, 0)"
          },
          {
            "fill": "rgb(0, 0, 0)"
          },
          {
            "fill": "rgb(0, 0, 0)"
          },
          {
            "fill": "rgb(255, 255, 255)"
          },
          {
            "fill": "rgb(0, 0, 0)"
          },
          {
            "fill": "rgb(238, 44, 104)"
          },
          {
            "fill": "rgb(255, 255, 255)"
          },
          {
            "fill": "rgb(0, 0, 0)"
          }
        ],
        "width": 144,
        "isMulticolor": true,
        "isMulticolor2": false,
        "grid": 0,
        "tags": [
          "sprites"
        ],
        "colorPermutations": {
          "12384410412552552551": [
            {
              "f": 0
            },
            {
              "f": 0
            },
            {
              "f": 2
            },
            {
              "f": 0
            },
            {
              "f": 0
            },
            {
              "f": 0
            },
            {
              "f": 0
            },
            {
              "f": 2
            },
            {
              "f": 0
            },
            {
              "f": 1
            },
            {
              "f": 2
            },
            {
              "f": 0
            }
          ]
        }
      },
      "attrs": [
        {
          "fill": "rgb(0, 0, 0)"
        },
        {
          "fill": "rgb(0, 0, 0)"
        },
        {
          "fill": "rgb(255, 255, 255)"
        },
        {
          "fill": "rgb(0, 0, 0)"
        },
        {
          "fill": "rgb(0, 0, 0)"
        },
        {
          "fill": "rgb(0, 0, 0)"
        },
        {
          "fill": "rgb(0, 0, 0)"
        },
        {
          "fill": "rgb(255, 255, 255)"
        },
        {
          "fill": "rgb(0, 0, 0)"
        },
        {
          "fill": "rgb(238, 44, 104)"
        },
        {
          "fill": "rgb(255, 255, 255)"
        },
        {
          "fill": "rgb(0, 0, 0)"
        }
      ],
      "properties": {
        "order": 8,
        "id": 0,
        "name": "sprites",
        "prevSize": 32,
        "code": 59648,
        "codes": [
          59648,
          59649,
          59650,
          59651,
          59652,
          59653,
          59654,
          59655,
          59656,
          59657,
          59658,
          59659
        ]
      },
      "setIdx": 3,
      "setId": 2,
      "iconIdx": 7
    }
  ],
  "height": 1024,
  "metadata": {
    "name": "icomoon"
  },
  "preferences": {
    "showGlyphs": true,
    "showQuickUse": false,
    "showQuickUse2": true,
    "showSVGs": true,
    "fontPref": {
      "prefix": "icon-",
      "metadata": {
        "fontFamily": "icomoon",
        "majorVersion": 1,
        "minorVersion": 0
      },
      "metrics": {
        "emSize": 1024,
        "baseline": 6.25,
        "whitespace": 50
      },
      "embed": false
    },
    "imagePref": {
      "prefix": "icon-",
      "png": true,
      "useClassSelector": true,
      "color": 0,
      "bgColor": 16777215,
      "classSelector": ".icon"
    },
    "historySize": 50,
    "showCodes": true,
    "gridSize": 16
  }
}